^D:\FACULTATEAN II\GRAFICA3D\LAB2 HELLO DIRECTX 9\DEBUG\LAB2 HELLO DIRECTX 9.OBJ|D:\FACULTATEAN II\GRAFICA3D\LAB2 HELLO DIRECTX 9\DEBUG\LAB2 HELLO DIRECTX 9.RES
/OUT:"D:\FACULTATEAN II\GRAFICA3D\LAB2 HELLO DIRECTX 9\DEBUG\LAB2 HELLO DIRECTX 9.EXE" /INCREMENTAL /NOLOGO KERNEL32.LIB USER32.LIB GDI32.LIB WINSPOOL.LIB COMDLG32.LIB ADVAPI32.LIB SHELL32.LIB OLE32.LIB OLEAUT32.LIB UUID.LIB ODBC32.LIB ODBCCP32.LIB /MANIFEST /MANIFESTUAC:"level='asInvoker' uiAccess='false'" /manifest:embed /DEBUG:FASTLINK /PDB:"D:\FACULTATEAN II\GRAFICA3D\LAB2 HELLO DIRECTX 9\DEBUG\LAB2 HELLO DIRECTX 9.PDB" /SUBSYSTEM:WINDOWS /TLBID:1 /DYNAMICBASE /NXCOMPAT /IMPLIB:"D:\FACULTATEAN II\GRAFICA3D\LAB2 HELLO DIRECTX 9\DEBUG\LAB2 HELLO DIRECTX 9.LIB" /MACHINE:X86 "DEBUG\LAB2 HELLO DIRECTX 9.RES"
"DEBUG\LAB2 HELLO DIRECTX 9.OBJ"
