^E:\FACULTATEAN II\GRAFICA3D\LAB 6 - TEXTURI\LAB 6 - TEXTURI\DEBUG\LAB 6 - TEXTURI.OBJ
/OUT:"E:\FACULTATEAN II\GRAFICA3D\LAB 6 - TEXTURI\DEBUG\LAB 6 - TEXTURI.EXE" /INCREMENTAL /NOLOGO /LIBPATH:"E:\FACULTATEAN II\GRAFICA3D\_EXTERNAL\FREEGLUT\LIB" /LIBPATH:"E:\FACULTATEAN II\GRAFICA3D\_EXTERNAL\GLEW-2.1.0\LIB\RELEASE\WIN32" /LIBPATH:"E:\FACULTATEAN II\GRAFICA3D\_EXTERNAL\GLFW-3.2.1.BIN.WIN32\LIB-VC2015" KERNEL32.LIB USER32.LIB GDI32.LIB WINSPOOL.LIB COMDLG32.LIB ADVAPI32.LIB SHELL32.LIB OLE32.LIB OLEAUT32.LIB UUID.LIB ODBC32.LIB ODBCCP32.LIB /MANIFEST /MANIFESTUAC:"level='asInvoker' uiAccess='false'" /manifest:embed /DEBUG:FASTLINK /PDB:"E:\FACULTATEAN II\GRAFICA3D\LAB 6 - TEXTURI\DEBUG\LAB 6 - TEXTURI.PDB" /SUBSYSTEM:CONSOLE /TLBID:1 /DYNAMICBASE /NXCOMPAT /IMPLIB:"E:\FACULTATEAN II\GRAFICA3D\LAB 6 - TEXTURI\DEBUG\LAB 6 - TEXTURI.LIB" /MACHINE:X86 "DEBUG\LAB 6 - TEXTURI.OBJ"
^C:\USERS\ROBERT\SOURCE\REPOS\GRAFICA3D\LAB 6 - TEXTURI\LAB 6 - TEXTURI\DEBUG\LAB 6 - TEXTURI.OBJ
/OUT:"C:\USERS\ROBERT\SOURCE\REPOS\GRAFICA3D\LAB 6 - TEXTURI\DEBUG\LAB 6 - TEXTURI.EXE" /INCREMENTAL /NOLOGO /LIBPATH:..\..\_EXTERNAL\FREEGLUT\LIB /LIBPATH:"..\..\_EXTERNAL\GLEW-2.1.0\LIB\RELEASE\WIN32" /LIBPATH:"..\..\_EXTERNAL\GLFW-3.2.1.BIN.WIN32\LIB-VC2015" KERNEL32.LIB USER32.LIB GDI32.LIB WINSPOOL.LIB COMDLG32.LIB ADVAPI32.LIB SHELL32.LIB OLE32.LIB OLEAUT32.LIB UUID.LIB ODBC32.LIB ODBCCP32.LIB /MANIFEST /MANIFESTUAC:"level='asInvoker' uiAccess='false'" /manifest:embed /DEBUG:FASTLINK /PDB:"C:\USERS\ROBERT\SOURCE\REPOS\GRAFICA3D\LAB 6 - TEXTURI\DEBUG\LAB 6 - TEXTURI.PDB" /SUBSYSTEM:CONSOLE /TLBID:1 /DYNAMICBASE /NXCOMPAT /IMPLIB:"C:\USERS\ROBERT\SOURCE\REPOS\GRAFICA3D\LAB 6 - TEXTURI\DEBUG\LAB 6 - TEXTURI.LIB" /MACHINE:X86 "DEBUG\LAB 6 - TEXTURI.OBJ"
