^D:\FACULTATEAN II\GRAFICA3D\LAB 2 HELLO DIRECTX 11\DEBUG\LAB 2 HELLO DIRECTX 11.OBJ|D:\FACULTATEAN II\GRAFICA3D\LAB 2 HELLO DIRECTX 11\DEBUG\LAB 2 HELLO DIRECTX 11.RES
D:\FACULTATEAN II\GRAFICA3D\LAB 2 HELLO DIRECTX 11\DEBUG\LAB 2 HELLO DIRECTX 11.EXE
D:\FACULTATEAN II\GRAFICA3D\LAB 2 HELLO DIRECTX 11\DEBUG\LAB 2 HELLO DIRECTX 11.ILK
D:\FACULTATEAN II\GRAFICA3D\LAB 2 HELLO DIRECTX 11\DEBUG\LAB 2 HELLO DIRECTX 11.PDB
