^C:\USERS\RO_AD\DESKTOP\GRAFICA3D\LAB1 - HELLOOLDOPENGL\LAB1 - HELLOOLDOPENGL.CPP
/c /IC:\USERS\RO_AD\DESKTOP\GRAFICA3D\_EXTERNAL\FREEGLUT\INCLUDE /I"C:\USERS\RO_AD\DESKTOP\GRAFICA3D\_EXTERNAL\GLEW-2.1.0\INCLUDE" /ZI /JMC /nologo /W3 /WX- /diagnostics:column /sdl /Od /Oy- /D WIN32 /D _DEBUG /D _CONSOLE /D _UNICODE /D UNICODE /Gm- /EHsc /RTC1 /MDd /GS /fp:precise /permissive- /Zc:wchar_t /Zc:forScope /Zc:inline /Fo"DEBUG\\" /Fd"DEBUG\VC142.PDB" /Gd /TP /analyze- /FC C:\USERS\RO_AD\DESKTOP\GRAFICA3D\LAB1 - HELLOOLDOPENGL\LAB1 - HELLOOLDOPENGL.CPP
^D:\FACULTATEAN II\GRAFICA3D\LAB1 - HELLOOLDOPENGL\LAB1 - HELLOOLDOPENGL.CPP
/c /I"..\_EXTERNAL\GLEW-2.1.0\INCLUDE" /I..\_EXTERNAL\FREEGLUT\INCLUDE /ZI /JMC /nologo /W3 /WX- /diagnostics:column /sdl /Od /Oy- /D WIN32 /D _DEBUG /D _CONSOLE /D _UNICODE /D UNICODE /Gm- /EHsc /RTC1 /MDd /GS /fp:precise /permissive- /Zc:wchar_t /Zc:forScope /Zc:inline /Fo"DEBUG\\" /Fd"DEBUG\VC142.PDB" /Gd /TP /analyze- /FC D:\FACULTATEAN II\GRAFICA3D\LAB1 - HELLOOLDOPENGL\LAB1 - HELLOOLDOPENGL.CPP
