^D:\FACULTATEAN II\GRAFICA3D\LAB1 - HELLOOLDOPENGL\LAB1 - HELLOOLDOPENGL.CPP
D:\FACULTATEAN II\GRAFICA3D\LAB1 - HELLOOLDOPENGL\DEBUG\VC142.PDB
D:\FACULTATEAN II\GRAFICA3D\LAB1 - HELLOOLDOPENGL\DEBUG\VC142.IDB
D:\FACULTATEAN II\GRAFICA3D\LAB1 - HELLOOLDOPENGL\DEBUG\LAB1 - HELLOOLDOPENGL.OBJ
