^D:\FACULTATEAN II\GRAFICA3D\LAB1 - HELLOOLDOPENGL\DEBUG\LAB1 - HELLOOLDOPENGL.OBJ
D:\FACULTATEAN II\GRAFICA3D\LAB1 - HELLOOLDOPENGL\DEBUG\LAB1 - HELLOOLDOPENGL.ILK
D:\FACULTATEAN II\GRAFICA3D\LAB1 - HELLOOLDOPENGL\DEBUG\LAB1 - HELLOOLDOPENGL.EXE
D:\FACULTATEAN II\GRAFICA3D\LAB1 - HELLOOLDOPENGL\DEBUG\LAB1 - HELLOOLDOPENGL.PDB
