^E:\FACULTATEAN II\GRAFICA3D\LAB5 - CAMERA\LAB5 - CAMERA\LAB5 - CAMERA.CPP
C:\PROGRAM FILES (X86)\MICROSOFT VISUAL STUDIO\2019\COMMUNITY\VC\TOOLS\MSVC\14.23.28105\BIN\HOSTX86\X86\1033\CLUI.DLL
C:\WINDOWS\GLOBALIZATION\SORTING\SORTDEFAULT.NLS
C:\WINDOWS\SYSTEM32\TZRES.DLL
C:\PROGRAM FILES (X86)\WINDOWS KITS\10\INCLUDE\10.0.18362.0\UCRT\STDLIB.H
C:\PROGRAM FILES (X86)\WINDOWS KITS\10\INCLUDE\10.0.18362.0\UCRT\CORECRT.H
C:\PROGRAM FILES (X86)\MICROSOFT VISUAL STUDIO\2019\COMMUNITY\VC\TOOLS\MSVC\14.23.28105\INCLUDE\VCRUNTIME.H
C:\PROGRAM FILES (X86)\MICROSOFT VISUAL STUDIO\2019\COMMUNITY\VC\TOOLS\MSVC\14.23.28105\INCLUDE\SAL.H
C:\PROGRAM FILES (X86)\MICROSOFT VISUAL STUDIO\2019\COMMUNITY\VC\TOOLS\MSVC\14.23.28105\INCLUDE\CONCURRENCYSAL.H
C:\PROGRAM FILES (X86)\MICROSOFT VISUAL STUDIO\2019\COMMUNITY\VC\TOOLS\MSVC\14.23.28105\INCLUDE\VADEFS.H
C:\PROGRAM FILES (X86)\WINDOWS KITS\10\INCLUDE\10.0.18362.0\UCRT\CORECRT_MALLOC.H
C:\PROGRAM FILES (X86)\WINDOWS KITS\10\INCLUDE\10.0.18362.0\UCRT\CORECRT_SEARCH.H
C:\PROGRAM FILES (X86)\WINDOWS KITS\10\INCLUDE\10.0.18362.0\UCRT\STDDEF.H
C:\PROGRAM FILES (X86)\WINDOWS KITS\10\INCLUDE\10.0.18362.0\UCRT\CORECRT_WSTDLIB.H
C:\PROGRAM FILES (X86)\MICROSOFT VISUAL STUDIO\2019\COMMUNITY\VC\TOOLS\MSVC\14.23.28105\INCLUDE\LIMITS.H
C:\PROGRAM FILES (X86)\WINDOWS KITS\10\INCLUDE\10.0.18362.0\UCRT\STDIO.H
C:\PROGRAM FILES (X86)\WINDOWS KITS\10\INCLUDE\10.0.18362.0\UCRT\CORECRT_WSTDIO.H
C:\PROGRAM FILES (X86)\WINDOWS KITS\10\INCLUDE\10.0.18362.0\UCRT\CORECRT_STDIO_CONFIG.H
C:\PROGRAM FILES (X86)\WINDOWS KITS\10\INCLUDE\10.0.18362.0\UCRT\MATH.H
C:\PROGRAM FILES (X86)\WINDOWS KITS\10\INCLUDE\10.0.18362.0\UCRT\CORECRT_MATH.H
E:\FACULTATEAN II\GRAFICA3D\_EXTERNAL\GLEW-2.1.0\INCLUDE\GL\GLEW.H
C:\PROGRAM FILES (X86)\WINDOWS KITS\10\INCLUDE\10.0.18362.0\UM\GL\GLU.H
C:\PROGRAM FILES (X86)\WINDOWS KITS\10\INCLUDE\10.0.18362.0\SHARED\WINAPIFAMILY.H
C:\PROGRAM FILES (X86)\WINDOWS KITS\10\INCLUDE\10.0.18362.0\SHARED\WINPACKAGEFAMILY.H
C:\PROGRAM FILES (X86)\WINDOWS KITS\10\INCLUDE\10.0.18362.0\UM\GL\GL.H
E:\FACULTATEAN II\GRAFICA3D\_EXTERNAL\GLM\GLM\GLM.HPP
E:\FACULTATEAN II\GRAFICA3D\_EXTERNAL\GLM\GLM\DETAIL\_FIXES.HPP
C:\PROGRAM FILES (X86)\MICROSOFT VISUAL STUDIO\2019\COMMUNITY\VC\TOOLS\MSVC\14.23.28105\INCLUDE\CMATH
C:\PROGRAM FILES (X86)\MICROSOFT VISUAL STUDIO\2019\COMMUNITY\VC\TOOLS\MSVC\14.23.28105\INCLUDE\YVALS.H
C:\PROGRAM FILES (X86)\MICROSOFT VISUAL STUDIO\2019\COMMUNITY\VC\TOOLS\MSVC\14.23.28105\INCLUDE\YVALS_CORE.H
C:\PROGRAM FILES (X86)\MICROSOFT VISUAL STUDIO\2019\COMMUNITY\VC\TOOLS\MSVC\14.23.28105\INCLUDE\CRTDEFS.H
C:\PROGRAM FILES (X86)\MICROSOFT VISUAL STUDIO\2019\COMMUNITY\VC\TOOLS\MSVC\14.23.28105\INCLUDE\XKEYCHECK.H
C:\PROGRAM FILES (X86)\WINDOWS KITS\10\INCLUDE\10.0.18362.0\UCRT\CRTDBG.H
C:\PROGRAM FILES (X86)\MICROSOFT VISUAL STUDIO\2019\COMMUNITY\VC\TOOLS\MSVC\14.23.28105\INCLUDE\VCRUNTIME_NEW_DEBUG.H
C:\PROGRAM FILES (X86)\MICROSOFT VISUAL STUDIO\2019\COMMUNITY\VC\TOOLS\MSVC\14.23.28105\INCLUDE\VCRUNTIME_NEW.H
C:\PROGRAM FILES (X86)\MICROSOFT VISUAL STUDIO\2019\COMMUNITY\VC\TOOLS\MSVC\14.23.28105\INCLUDE\USE_ANSI.H
C:\PROGRAM FILES (X86)\MICROSOFT VISUAL STUDIO\2019\COMMUNITY\VC\TOOLS\MSVC\14.23.28105\INCLUDE\CSTDLIB
C:\PROGRAM FILES (X86)\MICROSOFT VISUAL STUDIO\2019\COMMUNITY\VC\TOOLS\MSVC\14.23.28105\INCLUDE\XTGMATH.H
C:\PROGRAM FILES (X86)\MICROSOFT VISUAL STUDIO\2019\COMMUNITY\VC\TOOLS\MSVC\14.23.28105\INCLUDE\XTR1COMMON
E:\FACULTATEAN II\GRAFICA3D\_EXTERNAL\GLM\GLM\DETAIL\SETUP.HPP
C:\PROGRAM FILES (X86)\MICROSOFT VISUAL STUDIO\2019\COMMUNITY\VC\TOOLS\MSVC\14.23.28105\INCLUDE\CASSERT
C:\PROGRAM FILES (X86)\WINDOWS KITS\10\INCLUDE\10.0.18362.0\UCRT\ASSERT.H
C:\PROGRAM FILES (X86)\MICROSOFT VISUAL STUDIO\2019\COMMUNITY\VC\TOOLS\MSVC\14.23.28105\INCLUDE\CSTDDEF
E:\FACULTATEAN II\GRAFICA3D\_EXTERNAL\GLM\GLM\SIMD\PLATFORM.H
C:\PROGRAM FILES (X86)\MICROSOFT VISUAL STUDIO\2019\COMMUNITY\VC\TOOLS\MSVC\14.23.28105\INCLUDE\CSTDINT
C:\PROGRAM FILES (X86)\MICROSOFT VISUAL STUDIO\2019\COMMUNITY\VC\TOOLS\MSVC\14.23.28105\INCLUDE\STDINT.H
C:\PROGRAM FILES (X86)\MICROSOFT VISUAL STUDIO\2019\COMMUNITY\VC\TOOLS\MSVC\14.23.28105\INCLUDE\TYPE_TRAITS
C:\PROGRAM FILES (X86)\MICROSOFT VISUAL STUDIO\2019\COMMUNITY\VC\TOOLS\MSVC\14.23.28105\INCLUDE\XSTDDEF
C:\PROGRAM FILES (X86)\MICROSOFT VISUAL STUDIO\2019\COMMUNITY\VC\TOOLS\MSVC\14.23.28105\INCLUDE\INITIALIZER_LIST
C:\PROGRAM FILES (X86)\MICROSOFT VISUAL STUDIO\2019\COMMUNITY\VC\TOOLS\MSVC\14.23.28105\INCLUDE\CLIMITS
C:\PROGRAM FILES (X86)\MICROSOFT VISUAL STUDIO\2019\COMMUNITY\VC\TOOLS\MSVC\14.23.28105\INCLUDE\CFLOAT
C:\PROGRAM FILES (X86)\WINDOWS KITS\10\INCLUDE\10.0.18362.0\UCRT\FLOAT.H
C:\PROGRAM FILES (X86)\MICROSOFT VISUAL STUDIO\2019\COMMUNITY\VC\TOOLS\MSVC\14.23.28105\INCLUDE\LIMITS
C:\PROGRAM FILES (X86)\MICROSOFT VISUAL STUDIO\2019\COMMUNITY\VC\TOOLS\MSVC\14.23.28105\INCLUDE\CWCHAR
C:\PROGRAM FILES (X86)\MICROSOFT VISUAL STUDIO\2019\COMMUNITY\VC\TOOLS\MSVC\14.23.28105\INCLUDE\CSTDIO
C:\PROGRAM FILES (X86)\WINDOWS KITS\10\INCLUDE\10.0.18362.0\UCRT\WCHAR.H
C:\PROGRAM FILES (X86)\WINDOWS KITS\10\INCLUDE\10.0.18362.0\UCRT\CORECRT_MEMCPY_S.H
C:\PROGRAM FILES (X86)\WINDOWS KITS\10\INCLUDE\10.0.18362.0\UCRT\ERRNO.H
C:\PROGRAM FILES (X86)\MICROSOFT VISUAL STUDIO\2019\COMMUNITY\VC\TOOLS\MSVC\14.23.28105\INCLUDE\VCRUNTIME_STRING.H
C:\PROGRAM FILES (X86)\WINDOWS KITS\10\INCLUDE\10.0.18362.0\UCRT\CORECRT_WCONIO.H
C:\PROGRAM FILES (X86)\WINDOWS KITS\10\INCLUDE\10.0.18362.0\UCRT\CORECRT_WCTYPE.H
C:\PROGRAM FILES (X86)\WINDOWS KITS\10\INCLUDE\10.0.18362.0\UCRT\CORECRT_WDIRECT.H
C:\PROGRAM FILES (X86)\WINDOWS KITS\10\INCLUDE\10.0.18362.0\UCRT\CORECRT_WIO.H
C:\PROGRAM FILES (X86)\WINDOWS KITS\10\INCLUDE\10.0.18362.0\UCRT\CORECRT_SHARE.H
C:\PROGRAM FILES (X86)\WINDOWS KITS\10\INCLUDE\10.0.18362.0\UCRT\CORECRT_WPROCESS.H
C:\PROGRAM FILES (X86)\WINDOWS KITS\10\INCLUDE\10.0.18362.0\UCRT\CORECRT_WSTRING.H
C:\PROGRAM FILES (X86)\WINDOWS KITS\10\INCLUDE\10.0.18362.0\UCRT\CORECRT_WTIME.H
C:\PROGRAM FILES (X86)\WINDOWS KITS\10\INCLUDE\10.0.18362.0\UCRT\SYS\STAT.H
C:\PROGRAM FILES (X86)\WINDOWS KITS\10\INCLUDE\10.0.18362.0\UCRT\SYS\TYPES.H
E:\FACULTATEAN II\GRAFICA3D\_EXTERNAL\GLM\GLM\FWD.HPP
E:\FACULTATEAN II\GRAFICA3D\_EXTERNAL\GLM\GLM\DETAIL\QUALIFIER.HPP
E:\FACULTATEAN II\GRAFICA3D\_EXTERNAL\GLM\GLM\VEC2.HPP
E:\FACULTATEAN II\GRAFICA3D\_EXTERNAL\GLM\GLM\EXT\VECTOR_BOOL2.HPP
E:\FACULTATEAN II\GRAFICA3D\_EXTERNAL\GLM\GLM\DETAIL\TYPE_VEC2.HPP
E:\FACULTATEAN II\GRAFICA3D\_EXTERNAL\GLM\GLM\DETAIL\TYPE_VEC2.INL
E:\FACULTATEAN II\GRAFICA3D\_EXTERNAL\GLM\GLM\DETAIL\COMPUTE_VECTOR_RELATIONAL.HPP
E:\FACULTATEAN II\GRAFICA3D\_EXTERNAL\GLM\GLM\EXT\VECTOR_BOOL2_PRECISION.HPP
E:\FACULTATEAN II\GRAFICA3D\_EXTERNAL\GLM\GLM\EXT\VECTOR_FLOAT2.HPP
E:\FACULTATEAN II\GRAFICA3D\_EXTERNAL\GLM\GLM\EXT\VECTOR_FLOAT2_PRECISION.HPP
E:\FACULTATEAN II\GRAFICA3D\_EXTERNAL\GLM\GLM\EXT\VECTOR_DOUBLE2.HPP
E:\FACULTATEAN II\GRAFICA3D\_EXTERNAL\GLM\GLM\EXT\VECTOR_DOUBLE2_PRECISION.HPP
E:\FACULTATEAN II\GRAFICA3D\_EXTERNAL\GLM\GLM\EXT\VECTOR_INT2.HPP
E:\FACULTATEAN II\GRAFICA3D\_EXTERNAL\GLM\GLM\EXT\VECTOR_INT2_PRECISION.HPP
E:\FACULTATEAN II\GRAFICA3D\_EXTERNAL\GLM\GLM\EXT\VECTOR_UINT2.HPP
E:\FACULTATEAN II\GRAFICA3D\_EXTERNAL\GLM\GLM\EXT\VECTOR_UINT2_PRECISION.HPP
E:\FACULTATEAN II\GRAFICA3D\_EXTERNAL\GLM\GLM\VEC3.HPP
E:\FACULTATEAN II\GRAFICA3D\_EXTERNAL\GLM\GLM\EXT\VECTOR_BOOL3.HPP
E:\FACULTATEAN II\GRAFICA3D\_EXTERNAL\GLM\GLM\DETAIL\TYPE_VEC3.HPP
E:\FACULTATEAN II\GRAFICA3D\_EXTERNAL\GLM\GLM\DETAIL\TYPE_VEC3.INL
E:\FACULTATEAN II\GRAFICA3D\_EXTERNAL\GLM\GLM\EXT\VECTOR_BOOL3_PRECISION.HPP
E:\FACULTATEAN II\GRAFICA3D\_EXTERNAL\GLM\GLM\EXT\VECTOR_FLOAT3.HPP
E:\FACULTATEAN II\GRAFICA3D\_EXTERNAL\GLM\GLM\EXT\VECTOR_FLOAT3_PRECISION.HPP
E:\FACULTATEAN II\GRAFICA3D\_EXTERNAL\GLM\GLM\EXT\VECTOR_DOUBLE3.HPP
E:\FACULTATEAN II\GRAFICA3D\_EXTERNAL\GLM\GLM\EXT\VECTOR_DOUBLE3_PRECISION.HPP
E:\FACULTATEAN II\GRAFICA3D\_EXTERNAL\GLM\GLM\EXT\VECTOR_INT3.HPP
E:\FACULTATEAN II\GRAFICA3D\_EXTERNAL\GLM\GLM\EXT\VECTOR_INT3_PRECISION.HPP
E:\FACULTATEAN II\GRAFICA3D\_EXTERNAL\GLM\GLM\EXT\VECTOR_UINT3.HPP
E:\FACULTATEAN II\GRAFICA3D\_EXTERNAL\GLM\GLM\EXT\VECTOR_UINT3_PRECISION.HPP
E:\FACULTATEAN II\GRAFICA3D\_EXTERNAL\GLM\GLM\VEC4.HPP
E:\FACULTATEAN II\GRAFICA3D\_EXTERNAL\GLM\GLM\EXT\VECTOR_BOOL4.HPP
E:\FACULTATEAN II\GRAFICA3D\_EXTERNAL\GLM\GLM\DETAIL\TYPE_VEC4.HPP
E:\FACULTATEAN II\GRAFICA3D\_EXTERNAL\GLM\GLM\DETAIL\TYPE_VEC4.INL
E:\FACULTATEAN II\GRAFICA3D\_EXTERNAL\GLM\GLM\EXT\VECTOR_BOOL4_PRECISION.HPP
E:\FACULTATEAN II\GRAFICA3D\_EXTERNAL\GLM\GLM\EXT\VECTOR_FLOAT4.HPP
E:\FACULTATEAN II\GRAFICA3D\_EXTERNAL\GLM\GLM\EXT\VECTOR_FLOAT4_PRECISION.HPP
E:\FACULTATEAN II\GRAFICA3D\_EXTERNAL\GLM\GLM\EXT\VECTOR_DOUBLE4.HPP
E:\FACULTATEAN II\GRAFICA3D\_EXTERNAL\GLM\GLM\EXT\VECTOR_DOUBLE4_PRECISION.HPP
E:\FACULTATEAN II\GRAFICA3D\_EXTERNAL\GLM\GLM\EXT\VECTOR_INT4.HPP
E:\FACULTATEAN II\GRAFICA3D\_EXTERNAL\GLM\GLM\EXT\VECTOR_INT4_PRECISION.HPP
E:\FACULTATEAN II\GRAFICA3D\_EXTERNAL\GLM\GLM\EXT\VECTOR_UINT4.HPP
E:\FACULTATEAN II\GRAFICA3D\_EXTERNAL\GLM\GLM\EXT\VECTOR_UINT4_PRECISION.HPP
E:\FACULTATEAN II\GRAFICA3D\_EXTERNAL\GLM\GLM\MAT2X2.HPP
E:\FACULTATEAN II\GRAFICA3D\_EXTERNAL\GLM\GLM\EXT\MATRIX_DOUBLE2X2.HPP
E:\FACULTATEAN II\GRAFICA3D\_EXTERNAL\GLM\GLM\DETAIL\TYPE_MAT2X2.HPP
E:\FACULTATEAN II\GRAFICA3D\_EXTERNAL\GLM\GLM\DETAIL\TYPE_MAT2X2.INL
E:\FACULTATEAN II\GRAFICA3D\_EXTERNAL\GLM\GLM\MATRIX.HPP
E:\FACULTATEAN II\GRAFICA3D\_EXTERNAL\GLM\GLM\MAT2X3.HPP
E:\FACULTATEAN II\GRAFICA3D\_EXTERNAL\GLM\GLM\EXT\MATRIX_DOUBLE2X3.HPP
E:\FACULTATEAN II\GRAFICA3D\_EXTERNAL\GLM\GLM\DETAIL\TYPE_MAT2X3.HPP
E:\FACULTATEAN II\GRAFICA3D\_EXTERNAL\GLM\GLM\DETAIL\TYPE_MAT2X3.INL
E:\FACULTATEAN II\GRAFICA3D\_EXTERNAL\GLM\GLM\EXT\MATRIX_DOUBLE2X3_PRECISION.HPP
E:\FACULTATEAN II\GRAFICA3D\_EXTERNAL\GLM\GLM\EXT\MATRIX_FLOAT2X3.HPP
E:\FACULTATEAN II\GRAFICA3D\_EXTERNAL\GLM\GLM\EXT\MATRIX_FLOAT2X3_PRECISION.HPP
E:\FACULTATEAN II\GRAFICA3D\_EXTERNAL\GLM\GLM\MAT2X4.HPP
E:\FACULTATEAN II\GRAFICA3D\_EXTERNAL\GLM\GLM\EXT\MATRIX_DOUBLE2X4.HPP
E:\FACULTATEAN II\GRAFICA3D\_EXTERNAL\GLM\GLM\DETAIL\TYPE_MAT2X4.HPP
E:\FACULTATEAN II\GRAFICA3D\_EXTERNAL\GLM\GLM\DETAIL\TYPE_MAT2X4.INL
E:\FACULTATEAN II\GRAFICA3D\_EXTERNAL\GLM\GLM\EXT\MATRIX_DOUBLE2X4_PRECISION.HPP
E:\FACULTATEAN II\GRAFICA3D\_EXTERNAL\GLM\GLM\EXT\MATRIX_FLOAT2X4.HPP
E:\FACULTATEAN II\GRAFICA3D\_EXTERNAL\GLM\GLM\EXT\MATRIX_FLOAT2X4_PRECISION.HPP
E:\FACULTATEAN II\GRAFICA3D\_EXTERNAL\GLM\GLM\MAT3X2.HPP
E:\FACULTATEAN II\GRAFICA3D\_EXTERNAL\GLM\GLM\EXT\MATRIX_DOUBLE3X2.HPP
E:\FACULTATEAN II\GRAFICA3D\_EXTERNAL\GLM\GLM\DETAIL\TYPE_MAT3X2.HPP
E:\FACULTATEAN II\GRAFICA3D\_EXTERNAL\GLM\GLM\DETAIL\TYPE_MAT3X2.INL
E:\FACULTATEAN II\GRAFICA3D\_EXTERNAL\GLM\GLM\EXT\MATRIX_DOUBLE3X2_PRECISION.HPP
E:\FACULTATEAN II\GRAFICA3D\_EXTERNAL\GLM\GLM\EXT\MATRIX_FLOAT3X2.HPP
E:\FACULTATEAN II\GRAFICA3D\_EXTERNAL\GLM\GLM\EXT\MATRIX_FLOAT3X2_PRECISION.HPP
E:\FACULTATEAN II\GRAFICA3D\_EXTERNAL\GLM\GLM\MAT3X3.HPP
E:\FACULTATEAN II\GRAFICA3D\_EXTERNAL\GLM\GLM\EXT\MATRIX_DOUBLE3X3.HPP
E:\FACULTATEAN II\GRAFICA3D\_EXTERNAL\GLM\GLM\DETAIL\TYPE_MAT3X3.HPP
E:\FACULTATEAN II\GRAFICA3D\_EXTERNAL\GLM\GLM\DETAIL\TYPE_MAT3X3.INL
E:\FACULTATEAN II\GRAFICA3D\_EXTERNAL\GLM\GLM\EXT\MATRIX_DOUBLE3X3_PRECISION.HPP
E:\FACULTATEAN II\GRAFICA3D\_EXTERNAL\GLM\GLM\EXT\MATRIX_FLOAT3X3.HPP
E:\FACULTATEAN II\GRAFICA3D\_EXTERNAL\GLM\GLM\EXT\MATRIX_FLOAT3X3_PRECISION.HPP
E:\FACULTATEAN II\GRAFICA3D\_EXTERNAL\GLM\GLM\MAT3X4.HPP
E:\FACULTATEAN II\GRAFICA3D\_EXTERNAL\GLM\GLM\EXT\MATRIX_DOUBLE3X4.HPP
E:\FACULTATEAN II\GRAFICA3D\_EXTERNAL\GLM\GLM\DETAIL\TYPE_MAT3X4.HPP
E:\FACULTATEAN II\GRAFICA3D\_EXTERNAL\GLM\GLM\DETAIL\TYPE_MAT3X4.INL
E:\FACULTATEAN II\GRAFICA3D\_EXTERNAL\GLM\GLM\EXT\MATRIX_DOUBLE3X4_PRECISION.HPP
E:\FACULTATEAN II\GRAFICA3D\_EXTERNAL\GLM\GLM\EXT\MATRIX_FLOAT3X4.HPP
E:\FACULTATEAN II\GRAFICA3D\_EXTERNAL\GLM\GLM\EXT\MATRIX_FLOAT3X4_PRECISION.HPP
E:\FACULTATEAN II\GRAFICA3D\_EXTERNAL\GLM\GLM\MAT4X2.HPP
E:\FACULTATEAN II\GRAFICA3D\_EXTERNAL\GLM\GLM\EXT\MATRIX_DOUBLE4X2.HPP
E:\FACULTATEAN II\GRAFICA3D\_EXTERNAL\GLM\GLM\DETAIL\TYPE_MAT4X2.HPP
E:\FACULTATEAN II\GRAFICA3D\_EXTERNAL\GLM\GLM\DETAIL\TYPE_MAT4X2.INL
E:\FACULTATEAN II\GRAFICA3D\_EXTERNAL\GLM\GLM\EXT\MATRIX_DOUBLE4X2_PRECISION.HPP
E:\FACULTATEAN II\GRAFICA3D\_EXTERNAL\GLM\GLM\EXT\MATRIX_FLOAT4X2.HPP
E:\FACULTATEAN II\GRAFICA3D\_EXTERNAL\GLM\GLM\EXT\MATRIX_FLOAT4X2_PRECISION.HPP
E:\FACULTATEAN II\GRAFICA3D\_EXTERNAL\GLM\GLM\MAT4X3.HPP
E:\FACULTATEAN II\GRAFICA3D\_EXTERNAL\GLM\GLM\EXT\MATRIX_DOUBLE4X3.HPP
E:\FACULTATEAN II\GRAFICA3D\_EXTERNAL\GLM\GLM\DETAIL\TYPE_MAT4X3.HPP
E:\FACULTATEAN II\GRAFICA3D\_EXTERNAL\GLM\GLM\DETAIL\TYPE_MAT4X3.INL
E:\FACULTATEAN II\GRAFICA3D\_EXTERNAL\GLM\GLM\EXT\MATRIX_DOUBLE4X3_PRECISION.HPP
E:\FACULTATEAN II\GRAFICA3D\_EXTERNAL\GLM\GLM\EXT\MATRIX_FLOAT4X3.HPP
E:\FACULTATEAN II\GRAFICA3D\_EXTERNAL\GLM\GLM\EXT\MATRIX_FLOAT4X3_PRECISION.HPP
E:\FACULTATEAN II\GRAFICA3D\_EXTERNAL\GLM\GLM\MAT4X4.HPP
E:\FACULTATEAN II\GRAFICA3D\_EXTERNAL\GLM\GLM\EXT\MATRIX_DOUBLE4X4.HPP
E:\FACULTATEAN II\GRAFICA3D\_EXTERNAL\GLM\GLM\DETAIL\TYPE_MAT4X4.HPP
E:\FACULTATEAN II\GRAFICA3D\_EXTERNAL\GLM\GLM\DETAIL\TYPE_MAT4X4.INL
E:\FACULTATEAN II\GRAFICA3D\_EXTERNAL\GLM\GLM\EXT\MATRIX_DOUBLE4X4_PRECISION.HPP
E:\FACULTATEAN II\GRAFICA3D\_EXTERNAL\GLM\GLM\EXT\MATRIX_FLOAT4X4.HPP
E:\FACULTATEAN II\GRAFICA3D\_EXTERNAL\GLM\GLM\EXT\MATRIX_FLOAT4X4_PRECISION.HPP
E:\FACULTATEAN II\GRAFICA3D\_EXTERNAL\GLM\GLM\DETAIL\FUNC_MATRIX.INL
E:\FACULTATEAN II\GRAFICA3D\_EXTERNAL\GLM\GLM\GEOMETRIC.HPP
E:\FACULTATEAN II\GRAFICA3D\_EXTERNAL\GLM\GLM\DETAIL\FUNC_GEOMETRIC.INL
E:\FACULTATEAN II\GRAFICA3D\_EXTERNAL\GLM\GLM\EXPONENTIAL.HPP
E:\FACULTATEAN II\GRAFICA3D\_EXTERNAL\GLM\GLM\DETAIL\TYPE_VEC1.HPP
E:\FACULTATEAN II\GRAFICA3D\_EXTERNAL\GLM\GLM\DETAIL\TYPE_VEC1.INL
E:\FACULTATEAN II\GRAFICA3D\_EXTERNAL\GLM\GLM\DETAIL\FUNC_EXPONENTIAL.INL
E:\FACULTATEAN II\GRAFICA3D\_EXTERNAL\GLM\GLM\VECTOR_RELATIONAL.HPP
E:\FACULTATEAN II\GRAFICA3D\_EXTERNAL\GLM\GLM\DETAIL\FUNC_VECTOR_RELATIONAL.INL
E:\FACULTATEAN II\GRAFICA3D\_EXTERNAL\GLM\GLM\DETAIL\_VECTORIZE.HPP
E:\FACULTATEAN II\GRAFICA3D\_EXTERNAL\GLM\GLM\COMMON.HPP
E:\FACULTATEAN II\GRAFICA3D\_EXTERNAL\GLM\GLM\DETAIL\FUNC_COMMON.INL
E:\FACULTATEAN II\GRAFICA3D\_EXTERNAL\GLM\GLM\DETAIL\COMPUTE_COMMON.HPP
E:\FACULTATEAN II\GRAFICA3D\_EXTERNAL\GLM\GLM\EXT\MATRIX_DOUBLE2X2_PRECISION.HPP
E:\FACULTATEAN II\GRAFICA3D\_EXTERNAL\GLM\GLM\EXT\MATRIX_FLOAT2X2.HPP
E:\FACULTATEAN II\GRAFICA3D\_EXTERNAL\GLM\GLM\EXT\MATRIX_FLOAT2X2_PRECISION.HPP
E:\FACULTATEAN II\GRAFICA3D\_EXTERNAL\GLM\GLM\TRIGONOMETRIC.HPP
E:\FACULTATEAN II\GRAFICA3D\_EXTERNAL\GLM\GLM\DETAIL\FUNC_TRIGONOMETRIC.INL
E:\FACULTATEAN II\GRAFICA3D\_EXTERNAL\GLM\GLM\PACKING.HPP
E:\FACULTATEAN II\GRAFICA3D\_EXTERNAL\GLM\GLM\DETAIL\FUNC_PACKING.INL
E:\FACULTATEAN II\GRAFICA3D\_EXTERNAL\GLM\GLM\DETAIL\TYPE_HALF.HPP
E:\FACULTATEAN II\GRAFICA3D\_EXTERNAL\GLM\GLM\DETAIL\TYPE_HALF.INL
E:\FACULTATEAN II\GRAFICA3D\_EXTERNAL\GLM\GLM\INTEGER.HPP
E:\FACULTATEAN II\GRAFICA3D\_EXTERNAL\GLM\GLM\DETAIL\FUNC_INTEGER.INL
C:\PROGRAM FILES (X86)\MICROSOFT VISUAL STUDIO\2019\COMMUNITY\VC\TOOLS\MSVC\14.23.28105\INCLUDE\INTRIN.H
C:\PROGRAM FILES (X86)\MICROSOFT VISUAL STUDIO\2019\COMMUNITY\VC\TOOLS\MSVC\14.23.28105\INCLUDE\INTRIN0.H
C:\PROGRAM FILES (X86)\MICROSOFT VISUAL STUDIO\2019\COMMUNITY\VC\TOOLS\MSVC\14.23.28105\INCLUDE\SETJMP.H
C:\PROGRAM FILES (X86)\MICROSOFT VISUAL STUDIO\2019\COMMUNITY\VC\TOOLS\MSVC\14.23.28105\INCLUDE\IMMINTRIN.H
C:\PROGRAM FILES (X86)\MICROSOFT VISUAL STUDIO\2019\COMMUNITY\VC\TOOLS\MSVC\14.23.28105\INCLUDE\WMMINTRIN.H
C:\PROGRAM FILES (X86)\MICROSOFT VISUAL STUDIO\2019\COMMUNITY\VC\TOOLS\MSVC\14.23.28105\INCLUDE\NMMINTRIN.H
C:\PROGRAM FILES (X86)\MICROSOFT VISUAL STUDIO\2019\COMMUNITY\VC\TOOLS\MSVC\14.23.28105\INCLUDE\SMMINTRIN.H
C:\PROGRAM FILES (X86)\MICROSOFT VISUAL STUDIO\2019\COMMUNITY\VC\TOOLS\MSVC\14.23.28105\INCLUDE\TMMINTRIN.H
C:\PROGRAM FILES (X86)\MICROSOFT VISUAL STUDIO\2019\COMMUNITY\VC\TOOLS\MSVC\14.23.28105\INCLUDE\PMMINTRIN.H
C:\PROGRAM FILES (X86)\MICROSOFT VISUAL STUDIO\2019\COMMUNITY\VC\TOOLS\MSVC\14.23.28105\INCLUDE\EMMINTRIN.H
C:\PROGRAM FILES (X86)\MICROSOFT VISUAL STUDIO\2019\COMMUNITY\VC\TOOLS\MSVC\14.23.28105\INCLUDE\XMMINTRIN.H
C:\PROGRAM FILES (X86)\MICROSOFT VISUAL STUDIO\2019\COMMUNITY\VC\TOOLS\MSVC\14.23.28105\INCLUDE\MMINTRIN.H
C:\PROGRAM FILES (X86)\WINDOWS KITS\10\INCLUDE\10.0.18362.0\UCRT\MALLOC.H
C:\PROGRAM FILES (X86)\MICROSOFT VISUAL STUDIO\2019\COMMUNITY\VC\TOOLS\MSVC\14.23.28105\INCLUDE\ZMMINTRIN.H
C:\PROGRAM FILES (X86)\MICROSOFT VISUAL STUDIO\2019\COMMUNITY\VC\TOOLS\MSVC\14.23.28105\INCLUDE\AMMINTRIN.H
C:\PROGRAM FILES (X86)\MICROSOFT VISUAL STUDIO\2019\COMMUNITY\VC\TOOLS\MSVC\14.23.28105\INCLUDE\MM3DNOW.H
E:\FACULTATEAN II\GRAFICA3D\_EXTERNAL\GLM\GLM\GTC\MATRIX_TRANSFORM.HPP
E:\FACULTATEAN II\GRAFICA3D\_EXTERNAL\GLM\GLM\EXT\MATRIX_PROJECTION.HPP
E:\FACULTATEAN II\GRAFICA3D\_EXTERNAL\GLM\GLM\GTC\CONSTANTS.HPP
E:\FACULTATEAN II\GRAFICA3D\_EXTERNAL\GLM\GLM\EXT\SCALAR_CONSTANTS.HPP
E:\FACULTATEAN II\GRAFICA3D\_EXTERNAL\GLM\GLM\EXT\SCALAR_CONSTANTS.INL
E:\FACULTATEAN II\GRAFICA3D\_EXTERNAL\GLM\GLM\GTC\CONSTANTS.INL
E:\FACULTATEAN II\GRAFICA3D\_EXTERNAL\GLM\GLM\EXT\MATRIX_PROJECTION.INL
E:\FACULTATEAN II\GRAFICA3D\_EXTERNAL\GLM\GLM\EXT\MATRIX_CLIP_SPACE.HPP
E:\FACULTATEAN II\GRAFICA3D\_EXTERNAL\GLM\GLM\EXT\MATRIX_CLIP_SPACE.INL
E:\FACULTATEAN II\GRAFICA3D\_EXTERNAL\GLM\GLM\EXT\MATRIX_TRANSFORM.HPP
E:\FACULTATEAN II\GRAFICA3D\_EXTERNAL\GLM\GLM\EXT\MATRIX_TRANSFORM.INL
E:\FACULTATEAN II\GRAFICA3D\_EXTERNAL\GLM\GLM\GTC\MATRIX_TRANSFORM.INL
E:\FACULTATEAN II\GRAFICA3D\_EXTERNAL\GLM\GLM\GTC\TYPE_PTR.HPP
E:\FACULTATEAN II\GRAFICA3D\_EXTERNAL\GLM\GLM\GTC\QUATERNION.HPP
E:\FACULTATEAN II\GRAFICA3D\_EXTERNAL\GLM\GLM\EXT\VECTOR_RELATIONAL.HPP
E:\FACULTATEAN II\GRAFICA3D\_EXTERNAL\GLM\GLM\EXT\VECTOR_RELATIONAL.INL
E:\FACULTATEAN II\GRAFICA3D\_EXTERNAL\GLM\GLM\DETAIL\TYPE_FLOAT.HPP
E:\FACULTATEAN II\GRAFICA3D\_EXTERNAL\GLM\GLM\EXT\QUATERNION_COMMON.HPP
E:\FACULTATEAN II\GRAFICA3D\_EXTERNAL\GLM\GLM\EXT\QUATERNION_GEOMETRIC.HPP
E:\FACULTATEAN II\GRAFICA3D\_EXTERNAL\GLM\GLM\EXT\QUATERNION_GEOMETRIC.INL
E:\FACULTATEAN II\GRAFICA3D\_EXTERNAL\GLM\GLM\EXT\QUATERNION_COMMON.INL
E:\FACULTATEAN II\GRAFICA3D\_EXTERNAL\GLM\GLM\EXT\QUATERNION_FLOAT.HPP
E:\FACULTATEAN II\GRAFICA3D\_EXTERNAL\GLM\GLM\DETAIL\TYPE_QUAT.HPP
E:\FACULTATEAN II\GRAFICA3D\_EXTERNAL\GLM\GLM\EXT\QUATERNION_RELATIONAL.HPP
E:\FACULTATEAN II\GRAFICA3D\_EXTERNAL\GLM\GLM\EXT\QUATERNION_RELATIONAL.INL
E:\FACULTATEAN II\GRAFICA3D\_EXTERNAL\GLM\GLM\DETAIL\TYPE_QUAT.INL
E:\FACULTATEAN II\GRAFICA3D\_EXTERNAL\GLM\GLM\EXT\QUATERNION_FLOAT_PRECISION.HPP
E:\FACULTATEAN II\GRAFICA3D\_EXTERNAL\GLM\GLM\EXT\QUATERNION_DOUBLE.HPP
E:\FACULTATEAN II\GRAFICA3D\_EXTERNAL\GLM\GLM\EXT\QUATERNION_DOUBLE_PRECISION.HPP
E:\FACULTATEAN II\GRAFICA3D\_EXTERNAL\GLM\GLM\EXT\QUATERNION_TRIGONOMETRIC.HPP
E:\FACULTATEAN II\GRAFICA3D\_EXTERNAL\GLM\GLM\EXT\QUATERNION_TRIGONOMETRIC.INL
E:\FACULTATEAN II\GRAFICA3D\_EXTERNAL\GLM\GLM\EXT\QUATERNION_TRANSFORM.HPP
E:\FACULTATEAN II\GRAFICA3D\_EXTERNAL\GLM\GLM\EXT\QUATERNION_TRANSFORM.INL
E:\FACULTATEAN II\GRAFICA3D\_EXTERNAL\GLM\GLM\GTC\QUATERNION.INL
E:\FACULTATEAN II\GRAFICA3D\_EXTERNAL\GLM\GLM\GTC\EPSILON.HPP
E:\FACULTATEAN II\GRAFICA3D\_EXTERNAL\GLM\GLM\GTC\EPSILON.INL
E:\FACULTATEAN II\GRAFICA3D\_EXTERNAL\GLM\GLM\GTC\VEC1.HPP
E:\FACULTATEAN II\GRAFICA3D\_EXTERNAL\GLM\GLM\EXT\VECTOR_BOOL1.HPP
E:\FACULTATEAN II\GRAFICA3D\_EXTERNAL\GLM\GLM\EXT\VECTOR_BOOL1_PRECISION.HPP
E:\FACULTATEAN II\GRAFICA3D\_EXTERNAL\GLM\GLM\EXT\VECTOR_FLOAT1.HPP
E:\FACULTATEAN II\GRAFICA3D\_EXTERNAL\GLM\GLM\EXT\VECTOR_FLOAT1_PRECISION.HPP
E:\FACULTATEAN II\GRAFICA3D\_EXTERNAL\GLM\GLM\EXT\VECTOR_DOUBLE1.HPP
E:\FACULTATEAN II\GRAFICA3D\_EXTERNAL\GLM\GLM\EXT\VECTOR_DOUBLE1_PRECISION.HPP
E:\FACULTATEAN II\GRAFICA3D\_EXTERNAL\GLM\GLM\EXT\VECTOR_INT1.HPP
E:\FACULTATEAN II\GRAFICA3D\_EXTERNAL\GLM\GLM\EXT\VECTOR_INT1_PRECISION.HPP
E:\FACULTATEAN II\GRAFICA3D\_EXTERNAL\GLM\GLM\EXT\VECTOR_UINT1.HPP
E:\FACULTATEAN II\GRAFICA3D\_EXTERNAL\GLM\GLM\EXT\VECTOR_UINT1_PRECISION.HPP
C:\PROGRAM FILES (X86)\MICROSOFT VISUAL STUDIO\2019\COMMUNITY\VC\TOOLS\MSVC\14.23.28105\INCLUDE\CSTRING
C:\PROGRAM FILES (X86)\WINDOWS KITS\10\INCLUDE\10.0.18362.0\UCRT\STRING.H
C:\PROGRAM FILES (X86)\WINDOWS KITS\10\INCLUDE\10.0.18362.0\UCRT\CORECRT_MEMORY.H
E:\FACULTATEAN II\GRAFICA3D\_EXTERNAL\GLM\GLM\GTC\TYPE_PTR.INL
E:\FACULTATEAN II\GRAFICA3D\_EXTERNAL\GLFW-3.2.1.BIN.WIN32\INCLUDE\GLFW\GLFW3.H
C:\PROGRAM FILES (X86)\MICROSOFT VISUAL STUDIO\2019\COMMUNITY\VC\TOOLS\MSVC\14.23.28105\INCLUDE\CHRONO
C:\PROGRAM FILES (X86)\MICROSOFT VISUAL STUDIO\2019\COMMUNITY\VC\TOOLS\MSVC\14.23.28105\INCLUDE\RATIO
C:\PROGRAM FILES (X86)\MICROSOFT VISUAL STUDIO\2019\COMMUNITY\VC\TOOLS\MSVC\14.23.28105\INCLUDE\THR\XTIMEC.H
C:\PROGRAM FILES (X86)\WINDOWS KITS\10\INCLUDE\10.0.18362.0\UCRT\TIME.H
C:\PROGRAM FILES (X86)\MICROSOFT VISUAL STUDIO\2019\COMMUNITY\VC\TOOLS\MSVC\14.23.28105\INCLUDE\UTILITY
C:\PROGRAM FILES (X86)\MICROSOFT VISUAL STUDIO\2019\COMMUNITY\VC\TOOLS\MSVC\14.23.28105\INCLUDE\CTIME
C:\PROGRAM FILES (X86)\MICROSOFT VISUAL STUDIO\2019\COMMUNITY\VC\TOOLS\MSVC\14.23.28105\INCLUDE\IOSTREAM
C:\PROGRAM FILES (X86)\MICROSOFT VISUAL STUDIO\2019\COMMUNITY\VC\TOOLS\MSVC\14.23.28105\INCLUDE\ISTREAM
C:\PROGRAM FILES (X86)\MICROSOFT VISUAL STUDIO\2019\COMMUNITY\VC\TOOLS\MSVC\14.23.28105\INCLUDE\OSTREAM
C:\PROGRAM FILES (X86)\MICROSOFT VISUAL STUDIO\2019\COMMUNITY\VC\TOOLS\MSVC\14.23.28105\INCLUDE\IOS
C:\PROGRAM FILES (X86)\MICROSOFT VISUAL STUDIO\2019\COMMUNITY\VC\TOOLS\MSVC\14.23.28105\INCLUDE\XLOCNUM
C:\PROGRAM FILES (X86)\MICROSOFT VISUAL STUDIO\2019\COMMUNITY\VC\TOOLS\MSVC\14.23.28105\INCLUDE\STREAMBUF
C:\PROGRAM FILES (X86)\MICROSOFT VISUAL STUDIO\2019\COMMUNITY\VC\TOOLS\MSVC\14.23.28105\INCLUDE\XIOSBASE
C:\PROGRAM FILES (X86)\WINDOWS KITS\10\INCLUDE\10.0.18362.0\UCRT\SHARE.H
C:\PROGRAM FILES (X86)\MICROSOFT VISUAL STUDIO\2019\COMMUNITY\VC\TOOLS\MSVC\14.23.28105\INCLUDE\SYSTEM_ERROR
C:\PROGRAM FILES (X86)\MICROSOFT VISUAL STUDIO\2019\COMMUNITY\VC\TOOLS\MSVC\14.23.28105\INCLUDE\CERRNO
C:\PROGRAM FILES (X86)\MICROSOFT VISUAL STUDIO\2019\COMMUNITY\VC\TOOLS\MSVC\14.23.28105\INCLUDE\STDEXCEPT
C:\PROGRAM FILES (X86)\MICROSOFT VISUAL STUDIO\2019\COMMUNITY\VC\TOOLS\MSVC\14.23.28105\INCLUDE\EXCEPTION
C:\PROGRAM FILES (X86)\MICROSOFT VISUAL STUDIO\2019\COMMUNITY\VC\TOOLS\MSVC\14.23.28105\INCLUDE\VCRUNTIME_EXCEPTION.H
C:\PROGRAM FILES (X86)\MICROSOFT VISUAL STUDIO\2019\COMMUNITY\VC\TOOLS\MSVC\14.23.28105\INCLUDE\EH.H
C:\PROGRAM FILES (X86)\WINDOWS KITS\10\INCLUDE\10.0.18362.0\UCRT\CORECRT_TERMINATE.H
C:\PROGRAM FILES (X86)\MICROSOFT VISUAL STUDIO\2019\COMMUNITY\VC\TOOLS\MSVC\14.23.28105\INCLUDE\XSTRING
C:\PROGRAM FILES (X86)\MICROSOFT VISUAL STUDIO\2019\COMMUNITY\VC\TOOLS\MSVC\14.23.28105\INCLUDE\IOSFWD
C:\PROGRAM FILES (X86)\MICROSOFT VISUAL STUDIO\2019\COMMUNITY\VC\TOOLS\MSVC\14.23.28105\INCLUDE\XMEMORY
C:\PROGRAM FILES (X86)\MICROSOFT VISUAL STUDIO\2019\COMMUNITY\VC\TOOLS\MSVC\14.23.28105\INCLUDE\NEW
C:\PROGRAM FILES (X86)\MICROSOFT VISUAL STUDIO\2019\COMMUNITY\VC\TOOLS\MSVC\14.23.28105\INCLUDE\XATOMIC.H
C:\PROGRAM FILES (X86)\MICROSOFT VISUAL STUDIO\2019\COMMUNITY\VC\TOOLS\MSVC\14.23.28105\INCLUDE\XUTILITY
C:\PROGRAM FILES (X86)\MICROSOFT VISUAL STUDIO\2019\COMMUNITY\VC\TOOLS\MSVC\14.23.28105\INCLUDE\XCALL_ONCE.H
C:\PROGRAM FILES (X86)\MICROSOFT VISUAL STUDIO\2019\COMMUNITY\VC\TOOLS\MSVC\14.23.28105\INCLUDE\XERRC.H
C:\PROGRAM FILES (X86)\MICROSOFT VISUAL STUDIO\2019\COMMUNITY\VC\TOOLS\MSVC\14.23.28105\INCLUDE\XLOCALE
C:\PROGRAM FILES (X86)\MICROSOFT VISUAL STUDIO\2019\COMMUNITY\VC\TOOLS\MSVC\14.23.28105\INCLUDE\MEMORY
C:\PROGRAM FILES (X86)\MICROSOFT VISUAL STUDIO\2019\COMMUNITY\VC\TOOLS\MSVC\14.23.28105\INCLUDE\TYPEINFO
C:\PROGRAM FILES (X86)\MICROSOFT VISUAL STUDIO\2019\COMMUNITY\VC\TOOLS\MSVC\14.23.28105\INCLUDE\VCRUNTIME_TYPEINFO.H
C:\PROGRAM FILES (X86)\MICROSOFT VISUAL STUDIO\2019\COMMUNITY\VC\TOOLS\MSVC\14.23.28105\INCLUDE\XFACET
C:\PROGRAM FILES (X86)\MICROSOFT VISUAL STUDIO\2019\COMMUNITY\VC\TOOLS\MSVC\14.23.28105\INCLUDE\XLOCINFO
C:\PROGRAM FILES (X86)\MICROSOFT VISUAL STUDIO\2019\COMMUNITY\VC\TOOLS\MSVC\14.23.28105\INCLUDE\XLOCINFO.H
C:\PROGRAM FILES (X86)\WINDOWS KITS\10\INCLUDE\10.0.18362.0\UCRT\CTYPE.H
C:\PROGRAM FILES (X86)\WINDOWS KITS\10\INCLUDE\10.0.18362.0\UCRT\LOCALE.H
