^E:\FACULTATEAN II\GRAFICA3D\LAB5 - CAMERA\LAB5 - CAMERA\LAB5 - CAMERA.CPP
E:\FACULTATEAN II\GRAFICA3D\LAB5 - CAMERA\LAB5 - CAMERA\DEBUG\VC142.PDB
E:\FACULTATEAN II\GRAFICA3D\LAB5 - CAMERA\LAB5 - CAMERA\DEBUG\VC142.IDB
E:\FACULTATEAN II\GRAFICA3D\LAB5 - CAMERA\LAB5 - CAMERA\DEBUG\LAB5 - CAMERA.OBJ
