^E:\FACULTATEAN II\GRAFICA3D\LAB5 - CAMERA\LAB5 - CAMERA\DEBUG\LAB5 - CAMERA.OBJ
E:\FACULTATEAN II\GRAFICA3D\LAB5 - CAMERA\DEBUG\LAB5 - CAMERA.EXE
E:\FACULTATEAN II\GRAFICA3D\LAB5 - CAMERA\DEBUG\LAB5 - CAMERA.ILK
E:\FACULTATEAN II\GRAFICA3D\LAB5 - CAMERA\DEBUG\LAB5 - CAMERA.PDB
