^E:\FACULTATEAN II\GRAFICA3D\LAB 7 - LUMINI\LAB 7 - LUMINI\LAB 7 - LUMINI.CPP
/c /I"..\..\_EXTERNAL\GLEW-2.1.0\INCLUDE" /I..\..\_EXTERNAL\GLM\GLM /I"..\..\_EXTERNAL\GLFW-3.2.1.BIN.WIN32\INCLUDE\GLFW" /ZI /JMC /nologo /W3 /WX- /diagnostics:column /sdl /Od /Oy- /D WIN32 /D _DEBUG /D _CONSOLE /D _UNICODE /D UNICODE /Gm- /EHsc /RTC1 /MDd /GS /fp:precise /permissive- /Zc:wchar_t /Zc:forScope /Zc:inline /Fo"DEBUG\\" /Fd"DEBUG\VC142.PDB" /Gd /TP /analyze- /FC E:\FACULTATEAN II\GRAFICA3D\LAB 7 - LUMINI\LAB 7 - LUMINI\LAB 7 - LUMINI.CPP
^C:\USERS\ROBERT\SOURCE\REPOS\GRAFICA3D\LAB 7 - LUMINI\LAB 7 - LUMINI\LAB 7 - LUMINI.CPP
/c /I"..\..\_EXTERNAL\GLEW-2.1.0\INCLUDE" /I..\..\_EXTERNAL\GLM\GLM /I"..\..\_EXTERNAL\GLFW-3.2.1.BIN.WIN32\INCLUDE\GLFW" /ZI /JMC /nologo /W3 /WX- /diagnostics:column /sdl /Od /Oy- /D WIN32 /D _DEBUG /D _CONSOLE /D _UNICODE /D UNICODE /Gm- /EHsc /RTC1 /MDd /GS /fp:precise /permissive- /Zc:wchar_t /Zc:forScope /Zc:inline /Fo"DEBUG\\" /Fd"DEBUG\VC142.PDB" /Gd /TP /analyze- /FC C:\USERS\ROBERT\SOURCE\REPOS\GRAFICA3D\LAB 7 - LUMINI\LAB 7 - LUMINI\LAB 7 - LUMINI.CPP
